^C:\USERS\MARKO\DOCUMENTS\FAKULTET\PVISE\GAMECODE4-VS2015\SOURCE\TEAPOTWARS\MSVC\TEAPOTWARSSTD.CPP
C:\USERS\MARKO\DOCUMENTS\FAKULTET\PVISE\GAMECODE4-VS2015\SOURCE\TEMP\TEAPOTWARS_2015X64RELEASE\TEAPOTWARS_2015X64RELEASE.PCH
C:\USERS\MARKO\DOCUMENTS\FAKULTET\PVISE\GAMECODE4-VS2015\SOURCE\LIB\X64RELEASE\TEAPOTWARS_2015X64RELEASE.PDB
C:\USERS\MARKO\DOCUMENTS\FAKULTET\PVISE\GAMECODE4-VS2015\SOURCE\TEMP\TEAPOTWARS_2015X64RELEASE\TEAPOTWARSSTD.OBJ
^C:\USERS\MARKO\DOCUMENTS\FAKULTET\PVISE\GAMECODE4-VS2015\SOURCE\TEAPOTWARS\TEAPOTCONTROLLER.CPP|C:\USERS\MARKO\DOCUMENTS\FAKULTET\PVISE\GAMECODE4-VS2015\SOURCE\TEAPOTWARS\TEAPOTEVENTS.CPP|C:\USERS\MARKO\DOCUMENTS\FAKULTET\PVISE\GAMECODE4-VS2015\SOURCE\TEAPOTWARS\TEAPOTWARS.CPP|C:\USERS\MARKO\DOCUMENTS\FAKULTET\PVISE\GAMECODE4-VS2015\SOURCE\TEAPOTWARS\TEAPOTWARSVIEW.CPP
C:\USERS\MARKO\DOCUMENTS\FAKULTET\PVISE\GAMECODE4-VS2015\SOURCE\LIB\X64RELEASE\TEAPOTWARS_2015X64RELEASE.PDB
C:\USERS\MARKO\DOCUMENTS\FAKULTET\PVISE\GAMECODE4-VS2015\SOURCE\TEMP\TEAPOTWARS_2015X64RELEASE\TEAPOTWARSVIEW.OBJ
C:\USERS\MARKO\DOCUMENTS\FAKULTET\PVISE\GAMECODE4-VS2015\SOURCE\TEMP\TEAPOTWARS_2015X64RELEASE\TEAPOTWARS.OBJ
C:\USERS\MARKO\DOCUMENTS\FAKULTET\PVISE\GAMECODE4-VS2015\SOURCE\TEMP\TEAPOTWARS_2015X64RELEASE\TEAPOTEVENTS.OBJ
C:\USERS\MARKO\DOCUMENTS\FAKULTET\PVISE\GAMECODE4-VS2015\SOURCE\TEMP\TEAPOTWARS_2015X64RELEASE\TEAPOTCONTROLLER.OBJ
^C:\USERS\MARKO\DOCUMENTS\FAKULTET\PVISE\GAMECODE4-VS2015\SOURCE\TEAPOTWARS\TEAPOTCONTROLLER.CPP
C:\USERS\MARKO\DOCUMENTS\FAKULTET\PVISE\GAMECODE4-VS2015\SOURCE\LIB\X64RELEASE\TEAPOTWARS_2015X64RELEASE.PDB
^C:\USERS\MARKO\DOCUMENTS\FAKULTET\PVISE\GAMECODE4-VS2015\SOURCE\TEAPOTWARS\TEAPOTEVENTS.CPP
C:\USERS\MARKO\DOCUMENTS\FAKULTET\PVISE\GAMECODE4-VS2015\SOURCE\LIB\X64RELEASE\TEAPOTWARS_2015X64RELEASE.PDB
^C:\USERS\MARKO\DOCUMENTS\FAKULTET\PVISE\GAMECODE4-VS2015\SOURCE\TEAPOTWARS\TEAPOTWARS.CPP
C:\USERS\MARKO\DOCUMENTS\FAKULTET\PVISE\GAMECODE4-VS2015\SOURCE\LIB\X64RELEASE\TEAPOTWARS_2015X64RELEASE.PDB
^C:\USERS\MARKO\DOCUMENTS\FAKULTET\PVISE\GAMECODE4-VS2015\SOURCE\TEAPOTWARS\TEAPOTWARSVIEW.CPP
C:\USERS\MARKO\DOCUMENTS\FAKULTET\PVISE\GAMECODE4-VS2015\SOURCE\LIB\X64RELEASE\TEAPOTWARS_2015X64RELEASE.PDB
