^C:\USERS\MARKO\DOCUMENTS\FAKULTET\PVISE\GAMECODE4-VS2015\SOURCE\TEAPOTWARS\MSVC\TEAPOTWARSSTD.CPP
C:\WINDOWS\GLOBALIZATION\SORTING\SORTDEFAULT.NLS
C:\PROGRAM FILES (X86)\MICROSOFT VISUAL STUDIO 14.0\VC\BIN\1033\CLUI.DLL
C:\WINDOWS\SYSTEM32\TZRES.DLL
C:\USERS\MARKO\DOCUMENTS\FAKULTET\PVISE\GAMECODE4-VS2015\SOURCE\TEAPOTWARS\MSVC\TEAPOTWARSSTD.H
C:\USERS\MARKO\DOCUMENTS\FAKULTET\PVISE\GAMECODE4-VS2015\SOURCE\GCC4\MSVC\GAMECODESTD.H
C:\PROGRAM FILES (X86)\WINDOWS KITS\8.1\INCLUDE\UM\WINDOWS.H
C:\PROGRAM FILES (X86)\WINDOWS KITS\8.1\INCLUDE\SHARED\WINAPIFAMILY.H
C:\PROGRAM FILES (X86)\WINDOWS KITS\8.1\INCLUDE\SHARED\SDKDDKVER.H
C:\PROGRAM FILES (X86)\MICROSOFT VISUAL STUDIO 14.0\VC\INCLUDE\EXCPT.H
C:\PROGRAM FILES (X86)\MICROSOFT VISUAL STUDIO 14.0\VC\INCLUDE\VCRUNTIME.H
C:\PROGRAM FILES (X86)\MICROSOFT VISUAL STUDIO 14.0\VC\INCLUDE\SAL.H
C:\PROGRAM FILES (X86)\MICROSOFT VISUAL STUDIO 14.0\VC\INCLUDE\CONCURRENCYSAL.H
C:\PROGRAM FILES (X86)\MICROSOFT VISUAL STUDIO 14.0\VC\INCLUDE\VADEFS.H
C:\PROGRAM FILES (X86)\MICROSOFT VISUAL STUDIO 14.0\VC\INCLUDE\STDARG.H
C:\PROGRAM FILES (X86)\WINDOWS KITS\8.1\INCLUDE\SHARED\WINDEF.H
C:\PROGRAM FILES (X86)\WINDOWS KITS\8.1\INCLUDE\SHARED\MINWINDEF.H
C:\PROGRAM FILES (X86)\WINDOWS KITS\8.1\INCLUDE\SHARED\SPECSTRINGS.H
C:\PROGRAM FILES (X86)\WINDOWS KITS\8.1\INCLUDE\SHARED\SPECSTRINGS_STRICT.H
C:\PROGRAM FILES (X86)\WINDOWS KITS\8.1\INCLUDE\SHARED\SPECSTRINGS_UNDEF.H
C:\PROGRAM FILES (X86)\WINDOWS KITS\8.1\INCLUDE\SHARED\DRIVERSPECS.H
C:\PROGRAM FILES (X86)\WINDOWS KITS\8.1\INCLUDE\SHARED\SDV_DRIVERSPECS.H
C:\PROGRAM FILES (X86)\WINDOWS KITS\8.1\INCLUDE\UM\WINNT.H
C:\PROGRAM FILES (X86)\WINDOWS KITS\10\INCLUDE\10.0.10240.0\UCRT\CTYPE.H
C:\PROGRAM FILES (X86)\WINDOWS KITS\10\INCLUDE\10.0.10240.0\UCRT\CORECRT.H
C:\PROGRAM FILES (X86)\WINDOWS KITS\10\INCLUDE\10.0.10240.0\UCRT\CORECRT_WCTYPE.H
C:\PROGRAM FILES (X86)\WINDOWS KITS\8.1\INCLUDE\SHARED\KERNELSPECS.H
C:\PROGRAM FILES (X86)\WINDOWS KITS\8.1\INCLUDE\SHARED\BASETSD.H
C:\PROGRAM FILES (X86)\WINDOWS KITS\8.1\INCLUDE\SHARED\GUIDDEF.H
C:\PROGRAM FILES (X86)\WINDOWS KITS\10\INCLUDE\10.0.10240.0\UCRT\STRING.H
C:\PROGRAM FILES (X86)\WINDOWS KITS\10\INCLUDE\10.0.10240.0\UCRT\CORECRT_MEMORY.H
C:\PROGRAM FILES (X86)\WINDOWS KITS\10\INCLUDE\10.0.10240.0\UCRT\CORECRT_MEMCPY_S.H
C:\PROGRAM FILES (X86)\WINDOWS KITS\10\INCLUDE\10.0.10240.0\UCRT\ERRNO.H
C:\PROGRAM FILES (X86)\MICROSOFT VISUAL STUDIO 14.0\VC\INCLUDE\VCRUNTIME_STRING.H
C:\PROGRAM FILES (X86)\WINDOWS KITS\10\INCLUDE\10.0.10240.0\UCRT\CORECRT_WSTRING.H
C:\PROGRAM FILES (X86)\WINDOWS KITS\8.1\INCLUDE\SHARED\PSHPACK4.H
C:\PROGRAM FILES (X86)\WINDOWS KITS\8.1\INCLUDE\SHARED\POPPACK.H
C:\PROGRAM FILES (X86)\WINDOWS KITS\8.1\INCLUDE\SHARED\PSHPACK2.H
C:\PROGRAM FILES (X86)\WINDOWS KITS\8.1\INCLUDE\SHARED\PSHPACK8.H
C:\PROGRAM FILES (X86)\WINDOWS KITS\8.1\INCLUDE\SHARED\APISET.H
C:\PROGRAM FILES (X86)\WINDOWS KITS\8.1\INCLUDE\SHARED\KTMTYPES.H
C:\PROGRAM FILES (X86)\WINDOWS KITS\8.1\INCLUDE\UM\WINBASE.H
C:\PROGRAM FILES (X86)\WINDOWS KITS\8.1\INCLUDE\SHARED\APISETCCONV.H
C:\PROGRAM FILES (X86)\WINDOWS KITS\8.1\INCLUDE\UM\MINWINBASE.H
C:\PROGRAM FILES (X86)\WINDOWS KITS\8.1\INCLUDE\UM\PROCESSENV.H
C:\PROGRAM FILES (X86)\WINDOWS KITS\8.1\INCLUDE\UM\FILEAPI.H
C:\PROGRAM FILES (X86)\WINDOWS KITS\8.1\INCLUDE\UM\DEBUGAPI.H
C:\PROGRAM FILES (X86)\WINDOWS KITS\8.1\INCLUDE\UM\UTILAPISET.H
C:\PROGRAM FILES (X86)\WINDOWS KITS\8.1\INCLUDE\UM\HANDLEAPI.H
C:\PROGRAM FILES (X86)\WINDOWS KITS\8.1\INCLUDE\UM\ERRHANDLINGAPI.H
C:\PROGRAM FILES (X86)\WINDOWS KITS\8.1\INCLUDE\UM\FIBERSAPI.H
C:\PROGRAM FILES (X86)\WINDOWS KITS\8.1\INCLUDE\UM\NAMEDPIPEAPI.H
C:\PROGRAM FILES (X86)\WINDOWS KITS\8.1\INCLUDE\UM\PROFILEAPI.H
C:\PROGRAM FILES (X86)\WINDOWS KITS\8.1\INCLUDE\UM\HEAPAPI.H
C:\PROGRAM FILES (X86)\WINDOWS KITS\8.1\INCLUDE\UM\IOAPISET.H
C:\PROGRAM FILES (X86)\WINDOWS KITS\8.1\INCLUDE\UM\SYNCHAPI.H
C:\PROGRAM FILES (X86)\WINDOWS KITS\8.1\INCLUDE\UM\INTERLOCKEDAPI.H
C:\PROGRAM FILES (X86)\WINDOWS KITS\8.1\INCLUDE\UM\PROCESSTHREADSAPI.H
C:\PROGRAM FILES (X86)\WINDOWS KITS\8.1\INCLUDE\UM\SYSINFOAPI.H
C:\PROGRAM FILES (X86)\WINDOWS KITS\8.1\INCLUDE\UM\MEMORYAPI.H
C:\PROGRAM FILES (X86)\WINDOWS KITS\8.1\INCLUDE\UM\THREADPOOLLEGACYAPISET.H
C:\PROGRAM FILES (X86)\WINDOWS KITS\8.1\INCLUDE\UM\THREADPOOLAPISET.H
C:\PROGRAM FILES (X86)\WINDOWS KITS\8.1\INCLUDE\UM\BEMAPISET.H
C:\PROGRAM FILES (X86)\WINDOWS KITS\8.1\INCLUDE\UM\JOBAPI.H
C:\PROGRAM FILES (X86)\WINDOWS KITS\8.1\INCLUDE\UM\WOW64APISET.H
C:\PROGRAM FILES (X86)\WINDOWS KITS\8.1\INCLUDE\UM\LIBLOADERAPI.H
C:\PROGRAM FILES (X86)\WINDOWS KITS\8.1\INCLUDE\UM\SECURITYBASEAPI.H
C:\PROGRAM FILES (X86)\WINDOWS KITS\8.1\INCLUDE\UM\NAMESPACEAPI.H
C:\PROGRAM FILES (X86)\WINDOWS KITS\8.1\INCLUDE\UM\SYSTEMTOPOLOGYAPI.H
C:\PROGRAM FILES (X86)\WINDOWS KITS\8.1\INCLUDE\UM\PROCESSTOPOLOGYAPI.H
C:\PROGRAM FILES (X86)\WINDOWS KITS\8.1\INCLUDE\UM\SECURITYAPPCONTAINER.H
C:\PROGRAM FILES (X86)\WINDOWS KITS\8.1\INCLUDE\UM\REALTIMEAPISET.H
C:\PROGRAM FILES (X86)\WINDOWS KITS\8.1\INCLUDE\SHARED\WINERROR.H
C:\PROGRAM FILES (X86)\WINDOWS KITS\8.1\INCLUDE\UM\TIMEZONEAPI.H
C:\PROGRAM FILES (X86)\WINDOWS KITS\8.1\INCLUDE\UM\WINGDI.H
C:\PROGRAM FILES (X86)\WINDOWS KITS\8.1\INCLUDE\SHARED\PSHPACK1.H
C:\PROGRAM FILES (X86)\WINDOWS KITS\8.1\INCLUDE\UM\WINUSER.H
C:\PROGRAM FILES (X86)\WINDOWS KITS\8.1\INCLUDE\SHARED\TVOUT.H
C:\PROGRAM FILES (X86)\WINDOWS KITS\8.1\INCLUDE\UM\WINNLS.H
C:\PROGRAM FILES (X86)\WINDOWS KITS\8.1\INCLUDE\UM\DATETIMEAPI.H
C:\PROGRAM FILES (X86)\WINDOWS KITS\8.1\INCLUDE\UM\STRINGAPISET.H
C:\PROGRAM FILES (X86)\WINDOWS KITS\8.1\INCLUDE\UM\WINCON.H
C:\PROGRAM FILES (X86)\WINDOWS KITS\8.1\INCLUDE\UM\CONSOLEAPI.H
C:\PROGRAM FILES (X86)\WINDOWS KITS\8.1\INCLUDE\UM\WINVER.H
C:\PROGRAM FILES (X86)\WINDOWS KITS\8.1\INCLUDE\UM\VERRSRC.H
C:\PROGRAM FILES (X86)\WINDOWS KITS\8.1\INCLUDE\UM\WINREG.H
C:\PROGRAM FILES (X86)\WINDOWS KITS\8.1\INCLUDE\UM\REASON.H
C:\PROGRAM FILES (X86)\WINDOWS KITS\8.1\INCLUDE\UM\WINNETWK.H
C:\PROGRAM FILES (X86)\WINDOWS KITS\8.1\INCLUDE\SHARED\WNNC.H
C:\PROGRAM FILES (X86)\WINDOWS KITS\8.1\INCLUDE\SHARED\STRALIGN.H
C:\PROGRAM FILES (X86)\WINDOWS KITS\8.1\INCLUDE\UM\WINSVC.H
C:\PROGRAM FILES (X86)\WINDOWS KITS\8.1\INCLUDE\UM\MCX.H
C:\PROGRAM FILES (X86)\WINDOWS KITS\8.1\INCLUDE\UM\IMM.H
C:\PROGRAM FILES (X86)\WINDOWS KITS\8.1\INCLUDE\UM\IME_CMODES.H
C:\PROGRAM FILES (X86)\WINDOWS KITS\8.1\INCLUDE\SHARED\WINDOWSX.H
C:\PROGRAM FILES (X86)\WINDOWS KITS\10\INCLUDE\10.0.10240.0\UCRT\CRTDBG.H
C:\PROGRAM FILES (X86)\MICROSOFT VISUAL STUDIO 14.0\VC\INCLUDE\VCRUNTIME_NEW_DEBUG.H
C:\PROGRAM FILES (X86)\MICROSOFT VISUAL STUDIO 14.0\VC\INCLUDE\VCRUNTIME_NEW.H
C:\PROGRAM FILES (X86)\WINDOWS KITS\10\INCLUDE\10.0.10240.0\UCRT\STDLIB.H
C:\PROGRAM FILES (X86)\WINDOWS KITS\10\INCLUDE\10.0.10240.0\UCRT\CORECRT_MALLOC.H
C:\PROGRAM FILES (X86)\WINDOWS KITS\10\INCLUDE\10.0.10240.0\UCRT\CORECRT_SEARCH.H
C:\PROGRAM FILES (X86)\WINDOWS KITS\10\INCLUDE\10.0.10240.0\UCRT\STDDEF.H
C:\PROGRAM FILES (X86)\WINDOWS KITS\10\INCLUDE\10.0.10240.0\UCRT\CORECRT_WSTDLIB.H
C:\PROGRAM FILES (X86)\MICROSOFT VISUAL STUDIO 14.0\VC\INCLUDE\LIMITS.H
C:\PROGRAM FILES (X86)\WINDOWS KITS\10\INCLUDE\10.0.10240.0\UCRT\MALLOC.H
C:\PROGRAM FILES (X86)\WINDOWS KITS\10\INCLUDE\10.0.10240.0\UCRT\MEMORY.H
C:\PROGRAM FILES (X86)\WINDOWS KITS\10\INCLUDE\10.0.10240.0\UCRT\TCHAR.H
C:\PROGRAM FILES (X86)\WINDOWS KITS\10\INCLUDE\10.0.10240.0\UCRT\WCHAR.H
C:\PROGRAM FILES (X86)\WINDOWS KITS\10\INCLUDE\10.0.10240.0\UCRT\CORECRT_WCONIO.H
C:\PROGRAM FILES (X86)\WINDOWS KITS\10\INCLUDE\10.0.10240.0\UCRT\CORECRT_STDIO_CONFIG.H
C:\PROGRAM FILES (X86)\WINDOWS KITS\10\INCLUDE\10.0.10240.0\UCRT\CORECRT_WDIRECT.H
C:\PROGRAM FILES (X86)\WINDOWS KITS\10\INCLUDE\10.0.10240.0\UCRT\CORECRT_WIO.H
C:\PROGRAM FILES (X86)\WINDOWS KITS\10\INCLUDE\10.0.10240.0\UCRT\CORECRT_SHARE.H
C:\PROGRAM FILES (X86)\WINDOWS KITS\10\INCLUDE\10.0.10240.0\UCRT\CORECRT_WPROCESS.H
C:\PROGRAM FILES (X86)\WINDOWS KITS\10\INCLUDE\10.0.10240.0\UCRT\CORECRT_WSTDIO.H
C:\PROGRAM FILES (X86)\WINDOWS KITS\10\INCLUDE\10.0.10240.0\UCRT\CORECRT_WTIME.H
C:\PROGRAM FILES (X86)\WINDOWS KITS\10\INCLUDE\10.0.10240.0\UCRT\SYS\STAT.H
C:\PROGRAM FILES (X86)\WINDOWS KITS\10\INCLUDE\10.0.10240.0\UCRT\SYS\TYPES.H
C:\PROGRAM FILES (X86)\WINDOWS KITS\8.1\INCLUDE\UM\MMSYSTEM.H
C:\PROGRAM FILES (X86)\WINDOWS KITS\8.1\INCLUDE\UM\MMSYSCOM.H
C:\PROGRAM FILES (X86)\WINDOWS KITS\8.1\INCLUDE\UM\MCIAPI.H
C:\PROGRAM FILES (X86)\WINDOWS KITS\8.1\INCLUDE\UM\MMISCAPI.H
C:\PROGRAM FILES (X86)\WINDOWS KITS\8.1\INCLUDE\UM\MMISCAPI2.H
C:\PROGRAM FILES (X86)\WINDOWS KITS\8.1\INCLUDE\UM\PLAYSOUNDAPI.H
C:\PROGRAM FILES (X86)\WINDOWS KITS\8.1\INCLUDE\UM\MMEAPI.H
C:\PROGRAM FILES (X86)\WINDOWS KITS\8.1\INCLUDE\UM\TIMEAPI.H
C:\PROGRAM FILES (X86)\WINDOWS KITS\8.1\INCLUDE\UM\JOYSTICKAPI.H
C:\PROGRAM FILES (X86)\MICROSOFT VISUAL STUDIO 14.0\VC\INCLUDE\ALGORITHM
C:\PROGRAM FILES (X86)\MICROSOFT VISUAL STUDIO 14.0\VC\INCLUDE\XMEMORY
C:\PROGRAM FILES (X86)\MICROSOFT VISUAL STUDIO 14.0\VC\INCLUDE\XMEMORY0
C:\PROGRAM FILES (X86)\MICROSOFT VISUAL STUDIO 14.0\VC\INCLUDE\CSTDINT
C:\PROGRAM FILES (X86)\MICROSOFT VISUAL STUDIO 14.0\VC\INCLUDE\YVALS.H
C:\PROGRAM FILES (X86)\MICROSOFT VISUAL STUDIO 14.0\VC\INCLUDE\XKEYCHECK.H
C:\PROGRAM FILES (X86)\MICROSOFT VISUAL STUDIO 14.0\VC\INCLUDE\CRTDEFS.H
C:\PROGRAM FILES (X86)\MICROSOFT VISUAL STUDIO 14.0\VC\INCLUDE\USE_ANSI.H
C:\PROGRAM FILES (X86)\MICROSOFT VISUAL STUDIO 14.0\VC\INCLUDE\STDINT.H
C:\PROGRAM FILES (X86)\MICROSOFT VISUAL STUDIO 14.0\VC\INCLUDE\CSTDLIB
C:\PROGRAM FILES (X86)\MICROSOFT VISUAL STUDIO 14.0\VC\INCLUDE\LIMITS
C:\PROGRAM FILES (X86)\MICROSOFT VISUAL STUDIO 14.0\VC\INCLUDE\YMATH.H
C:\PROGRAM FILES (X86)\MICROSOFT VISUAL STUDIO 14.0\VC\INCLUDE\CFLOAT
C:\PROGRAM FILES (X86)\WINDOWS KITS\10\INCLUDE\10.0.10240.0\UCRT\FLOAT.H
C:\PROGRAM FILES (X86)\MICROSOFT VISUAL STUDIO 14.0\VC\INCLUDE\CLIMITS
C:\PROGRAM FILES (X86)\MICROSOFT VISUAL STUDIO 14.0\VC\INCLUDE\CMATH
C:\PROGRAM FILES (X86)\WINDOWS KITS\10\INCLUDE\10.0.10240.0\UCRT\MATH.H
C:\PROGRAM FILES (X86)\MICROSOFT VISUAL STUDIO 14.0\VC\INCLUDE\XTGMATH.H
C:\PROGRAM FILES (X86)\MICROSOFT VISUAL STUDIO 14.0\VC\INCLUDE\XTR1COMMON
C:\PROGRAM FILES (X86)\MICROSOFT VISUAL STUDIO 14.0\VC\INCLUDE\CWCHAR
C:\PROGRAM FILES (X86)\MICROSOFT VISUAL STUDIO 14.0\VC\INCLUDE\XSTDDEF
C:\PROGRAM FILES (X86)\MICROSOFT VISUAL STUDIO 14.0\VC\INCLUDE\CSTDDEF
C:\PROGRAM FILES (X86)\MICROSOFT VISUAL STUDIO 14.0\VC\INCLUDE\INITIALIZER_LIST
C:\PROGRAM FILES (X86)\MICROSOFT VISUAL STUDIO 14.0\VC\INCLUDE\NEW
C:\PROGRAM FILES (X86)\MICROSOFT VISUAL STUDIO 14.0\VC\INCLUDE\EXCEPTION
C:\PROGRAM FILES (X86)\MICROSOFT VISUAL STUDIO 14.0\VC\INCLUDE\TYPE_TRAITS
C:\PROGRAM FILES (X86)\MICROSOFT VISUAL STUDIO 14.0\VC\INCLUDE\VCRUNTIME_EXCEPTION.H
C:\PROGRAM FILES (X86)\MICROSOFT VISUAL STUDIO 14.0\VC\INCLUDE\EH.H
C:\PROGRAM FILES (X86)\WINDOWS KITS\10\INCLUDE\10.0.10240.0\UCRT\CORECRT_TERMINATE.H
C:\PROGRAM FILES (X86)\MICROSOFT VISUAL STUDIO 14.0\VC\INCLUDE\XUTILITY
C:\PROGRAM FILES (X86)\MICROSOFT VISUAL STUDIO 14.0\VC\INCLUDE\UTILITY
C:\PROGRAM FILES (X86)\MICROSOFT VISUAL STUDIO 14.0\VC\INCLUDE\IOSFWD
C:\PROGRAM FILES (X86)\MICROSOFT VISUAL STUDIO 14.0\VC\INCLUDE\CSTDIO
C:\PROGRAM FILES (X86)\WINDOWS KITS\10\INCLUDE\10.0.10240.0\UCRT\STDIO.H
C:\PROGRAM FILES (X86)\MICROSOFT VISUAL STUDIO 14.0\VC\INCLUDE\CSTRING
C:\PROGRAM FILES (X86)\MICROSOFT VISUAL STUDIO 14.0\VC\INCLUDE\XATOMIC0.H
C:\PROGRAM FILES (X86)\MICROSOFT VISUAL STUDIO 14.0\VC\INCLUDE\INTRIN.H
C:\PROGRAM FILES (X86)\MICROSOFT VISUAL STUDIO 14.0\VC\INCLUDE\SETJMP.H
C:\PROGRAM FILES (X86)\MICROSOFT VISUAL STUDIO 14.0\VC\INCLUDE\IMMINTRIN.H
C:\PROGRAM FILES (X86)\MICROSOFT VISUAL STUDIO 14.0\VC\INCLUDE\WMMINTRIN.H
C:\PROGRAM FILES (X86)\MICROSOFT VISUAL STUDIO 14.0\VC\INCLUDE\NMMINTRIN.H
C:\PROGRAM FILES (X86)\MICROSOFT VISUAL STUDIO 14.0\VC\INCLUDE\SMMINTRIN.H
C:\PROGRAM FILES (X86)\MICROSOFT VISUAL STUDIO 14.0\VC\INCLUDE\TMMINTRIN.H
C:\PROGRAM FILES (X86)\MICROSOFT VISUAL STUDIO 14.0\VC\INCLUDE\PMMINTRIN.H
C:\PROGRAM FILES (X86)\MICROSOFT VISUAL STUDIO 14.0\VC\INCLUDE\EMMINTRIN.H
C:\PROGRAM FILES (X86)\MICROSOFT VISUAL STUDIO 14.0\VC\INCLUDE\XMMINTRIN.H
C:\PROGRAM FILES (X86)\MICROSOFT VISUAL STUDIO 14.0\VC\INCLUDE\MMINTRIN.H
C:\PROGRAM FILES (X86)\MICROSOFT VISUAL STUDIO 14.0\VC\INCLUDE\AMMINTRIN.H
C:\PROGRAM FILES (X86)\MICROSOFT VISUAL STUDIO 14.0\VC\INCLUDE\MM3DNOW.H
C:\PROGRAM FILES (X86)\MICROSOFT VISUAL STUDIO 14.0\VC\INCLUDE\STRING
C:\PROGRAM FILES (X86)\MICROSOFT VISUAL STUDIO 14.0\VC\INCLUDE\ISTREAM
C:\PROGRAM FILES (X86)\MICROSOFT VISUAL STUDIO 14.0\VC\INCLUDE\OSTREAM
C:\PROGRAM FILES (X86)\MICROSOFT VISUAL STUDIO 14.0\VC\INCLUDE\IOS
C:\PROGRAM FILES (X86)\MICROSOFT VISUAL STUDIO 14.0\VC\INCLUDE\XLOCNUM
C:\PROGRAM FILES (X86)\MICROSOFT VISUAL STUDIO 14.0\VC\INCLUDE\STREAMBUF
C:\PROGRAM FILES (X86)\MICROSOFT VISUAL STUDIO 14.0\VC\INCLUDE\XIOSBASE
C:\PROGRAM FILES (X86)\MICROSOFT VISUAL STUDIO 14.0\VC\INCLUDE\XLOCALE
C:\PROGRAM FILES (X86)\MICROSOFT VISUAL STUDIO 14.0\VC\INCLUDE\STDEXCEPT
C:\PROGRAM FILES (X86)\MICROSOFT VISUAL STUDIO 14.0\VC\INCLUDE\XSTRING
C:\PROGRAM FILES (X86)\MICROSOFT VISUAL STUDIO 14.0\VC\INCLUDE\TYPEINFO
C:\PROGRAM FILES (X86)\MICROSOFT VISUAL STUDIO 14.0\VC\INCLUDE\VCRUNTIME_TYPEINFO.H
C:\PROGRAM FILES (X86)\MICROSOFT VISUAL STUDIO 14.0\VC\INCLUDE\XLOCINFO
C:\PROGRAM FILES (X86)\MICROSOFT VISUAL STUDIO 14.0\VC\INCLUDE\XLOCINFO.H
C:\PROGRAM FILES (X86)\WINDOWS KITS\10\INCLUDE\10.0.10240.0\UCRT\LOCALE.H
C:\PROGRAM FILES (X86)\MICROSOFT VISUAL STUDIO 14.0\VC\INCLUDE\XFACET
C:\PROGRAM FILES (X86)\MICROSOFT VISUAL STUDIO 14.0\VC\INCLUDE\SYSTEM_ERROR
C:\PROGRAM FILES (X86)\MICROSOFT VISUAL STUDIO 14.0\VC\INCLUDE\CERRNO
C:\PROGRAM FILES (X86)\WINDOWS KITS\10\INCLUDE\10.0.10240.0\UCRT\SHARE.H
C:\PROGRAM FILES (X86)\MICROSOFT VISUAL STUDIO 14.0\VC\INCLUDE\LIST
C:\PROGRAM FILES (X86)\MICROSOFT VISUAL STUDIO 14.0\VC\INCLUDE\VECTOR
C:\PROGRAM FILES (X86)\MICROSOFT VISUAL STUDIO 14.0\VC\INCLUDE\QUEUE
C:\PROGRAM FILES (X86)\MICROSOFT VISUAL STUDIO 14.0\VC\INCLUDE\DEQUE
C:\PROGRAM FILES (X86)\MICROSOFT VISUAL STUDIO 14.0\VC\INCLUDE\MAP
C:\PROGRAM FILES (X86)\MICROSOFT VISUAL STUDIO 14.0\VC\INCLUDE\TUPLE
C:\PROGRAM FILES (X86)\MICROSOFT VISUAL STUDIO 14.0\VC\INCLUDE\XTREE
C:\PROGRAM FILES (X86)\MICROSOFT VISUAL STUDIO 14.0\VC\INCLUDE\MEMORY
C:\USERS\MARKO\DOCUMENTS\FAKULTET\PVISE\GAMECODE4-VS2015\SOURCE\GCC4\3RDPARTY\DXUT11\CORE\DXUT.H
C:\PROGRAM FILES (X86)\MICROSOFT DIRECTX SDK (JUNE 2010)\INCLUDE\DXSDKVER.H
C:\PROGRAM FILES (X86)\WINDOWS KITS\8.1\INCLUDE\SHARED\INITGUID.H
C:\PROGRAM FILES (X86)\WINDOWS KITS\10\INCLUDE\10.0.10240.0\UCRT\ASSERT.H
C:\PROGRAM FILES (X86)\WINDOWS KITS\8.1\INCLUDE\UM\COMMCTRL.H
C:\PROGRAM FILES (X86)\WINDOWS KITS\8.1\INCLUDE\UM\PRSHT.H
C:\PROGRAM FILES (X86)\WINDOWS KITS\8.1\INCLUDE\UM\SHELLAPI.H
C:\PROGRAM FILES (X86)\WINDOWS KITS\10\INCLUDE\10.0.10240.0\UCRT\NEW.H
C:\PROGRAM FILES (X86)\WINDOWS KITS\8.1\INCLUDE\UM\SHLOBJ.H
C:\PROGRAM FILES (X86)\WINDOWS KITS\8.1\INCLUDE\UM\OLE2.H
C:\PROGRAM FILES (X86)\WINDOWS KITS\8.1\INCLUDE\UM\OBJBASE.H
C:\PROGRAM FILES (X86)\WINDOWS KITS\8.1\INCLUDE\SHARED\RPC.H
C:\PROGRAM FILES (X86)\WINDOWS KITS\8.1\INCLUDE\SHARED\RPCDCE.H
C:\PROGRAM FILES (X86)\WINDOWS KITS\8.1\INCLUDE\SHARED\RPCDCEP.H
C:\PROGRAM FILES (X86)\WINDOWS KITS\8.1\INCLUDE\UM\RPCNSI.H
C:\PROGRAM FILES (X86)\WINDOWS KITS\8.1\INCLUDE\SHARED\RPCNTERR.H
C:\PROGRAM FILES (X86)\WINDOWS KITS\8.1\INCLUDE\SHARED\RPCASYNC.H
C:\PROGRAM FILES (X86)\WINDOWS KITS\8.1\INCLUDE\SHARED\RPCNDR.H
C:\PROGRAM FILES (X86)\WINDOWS KITS\8.1\INCLUDE\UM\RPCNSIP.H
C:\PROGRAM FILES (X86)\MICROSOFT DIRECTX SDK (JUNE 2010)\INCLUDE\RPCSAL.H
C:\PROGRAM FILES (X86)\WINDOWS KITS\8.1\INCLUDE\UM\COMBASEAPI.H
C:\PROGRAM FILES (X86)\WINDOWS KITS\8.1\INCLUDE\SHARED\WTYPESBASE.H
C:\PROGRAM FILES (X86)\WINDOWS KITS\8.1\INCLUDE\UM\UNKNWNBASE.H
C:\PROGRAM FILES (X86)\WINDOWS KITS\8.1\INCLUDE\UM\OBJIDLBASE.H
C:\PROGRAM FILES (X86)\WINDOWS KITS\8.1\INCLUDE\UM\OBJIDL.H
C:\PROGRAM FILES (X86)\WINDOWS KITS\8.1\INCLUDE\UM\UNKNWN.H
C:\PROGRAM FILES (X86)\WINDOWS KITS\8.1\INCLUDE\SHARED\WTYPES.H
C:\PROGRAM FILES (X86)\WINDOWS KITS\8.1\INCLUDE\UM\URLMON.H
C:\PROGRAM FILES (X86)\WINDOWS KITS\8.1\INCLUDE\UM\OLEIDL.H
C:\PROGRAM FILES (X86)\WINDOWS KITS\8.1\INCLUDE\UM\SERVPROV.H
C:\PROGRAM FILES (X86)\WINDOWS KITS\8.1\INCLUDE\UM\MSXML.H
C:\PROGRAM FILES (X86)\WINDOWS KITS\8.1\INCLUDE\UM\OAIDL.H
C:\PROGRAM FILES (X86)\WINDOWS KITS\8.1\INCLUDE\UM\PROPIDL.H
C:\PROGRAM FILES (X86)\WINDOWS KITS\8.1\INCLUDE\UM\OLEAUTO.H
C:\PROGRAM FILES (X86)\WINDOWS KITS\8.1\INCLUDE\UM\SHTYPES.H
C:\PROGRAM FILES (X86)\WINDOWS KITS\8.1\INCLUDE\UM\SHOBJIDL.H
C:\PROGRAM FILES (X86)\WINDOWS KITS\8.1\INCLUDE\UM\DOCOBJ.H
C:\PROGRAM FILES (X86)\WINDOWS KITS\8.1\INCLUDE\UM\OCIDL.H
C:\PROGRAM FILES (X86)\WINDOWS KITS\8.1\INCLUDE\UM\COMCAT.H
C:\PROGRAM FILES (X86)\WINDOWS KITS\8.1\INCLUDE\UM\PROPSYS.H
C:\PROGRAM FILES (X86)\WINDOWS KITS\8.1\INCLUDE\UM\STRUCTUREDQUERYCONDITION.H
C:\PROGRAM FILES (X86)\WINDOWS KITS\8.1\INCLUDE\UM\PROPKEYDEF.H
C:\PROGRAM FILES (X86)\WINDOWS KITS\8.1\INCLUDE\UM\OBJECTARRAY.H
C:\PROGRAM FILES (X86)\WINDOWS KITS\8.1\INCLUDE\UM\SHERRORS.H
C:\PROGRAM FILES (X86)\MICROSOFT DIRECTX SDK (JUNE 2010)\INCLUDE\D3D9.H
C:\PROGRAM FILES (X86)\MICROSOFT DIRECTX SDK (JUNE 2010)\INCLUDE\D3D9TYPES.H
C:\PROGRAM FILES (X86)\MICROSOFT DIRECTX SDK (JUNE 2010)\INCLUDE\D3D9CAPS.H
C:\PROGRAM FILES (X86)\MICROSOFT DIRECTX SDK (JUNE 2010)\INCLUDE\D3DX9.H
C:\PROGRAM FILES (X86)\MICROSOFT DIRECTX SDK (JUNE 2010)\INCLUDE\D3DX9MATH.H
C:\PROGRAM FILES (X86)\MICROSOFT DIRECTX SDK (JUNE 2010)\INCLUDE\D3DX9MATH.INL
C:\PROGRAM FILES (X86)\MICROSOFT DIRECTX SDK (JUNE 2010)\INCLUDE\D3DX9CORE.H
C:\PROGRAM FILES (X86)\MICROSOFT DIRECTX SDK (JUNE 2010)\INCLUDE\D3DX9XOF.H
C:\PROGRAM FILES (X86)\MICROSOFT DIRECTX SDK (JUNE 2010)\INCLUDE\D3DX9MESH.H
C:\PROGRAM FILES (X86)\MICROSOFT DIRECTX SDK (JUNE 2010)\INCLUDE\D3DX9SHADER.H
C:\PROGRAM FILES (X86)\MICROSOFT DIRECTX SDK (JUNE 2010)\INCLUDE\D3DX9EFFECT.H
C:\PROGRAM FILES (X86)\MICROSOFT DIRECTX SDK (JUNE 2010)\INCLUDE\D3DX9TEX.H
C:\PROGRAM FILES (X86)\MICROSOFT DIRECTX SDK (JUNE 2010)\INCLUDE\D3DX9SHAPE.H
C:\PROGRAM FILES (X86)\MICROSOFT DIRECTX SDK (JUNE 2010)\INCLUDE\D3DX9ANIM.H
C:\PROGRAM FILES (X86)\MICROSOFT DIRECTX SDK (JUNE 2010)\INCLUDE\D3DCOMMON.H
C:\PROGRAM FILES (X86)\MICROSOFT DIRECTX SDK (JUNE 2010)\INCLUDE\DXGI.H
C:\PROGRAM FILES (X86)\MICROSOFT DIRECTX SDK (JUNE 2010)\INCLUDE\DXGITYPE.H
C:\PROGRAM FILES (X86)\MICROSOFT DIRECTX SDK (JUNE 2010)\INCLUDE\DXGIFORMAT.H
C:\PROGRAM FILES (X86)\MICROSOFT DIRECTX SDK (JUNE 2010)\INCLUDE\D3D11.H
C:\PROGRAM FILES (X86)\MICROSOFT DIRECTX SDK (JUNE 2010)\INCLUDE\D3D10_1.H
C:\PROGRAM FILES (X86)\MICROSOFT DIRECTX SDK (JUNE 2010)\INCLUDE\D3D10.H
C:\PROGRAM FILES (X86)\MICROSOFT DIRECTX SDK (JUNE 2010)\INCLUDE\D3D10SDKLAYERS.H
C:\PROGRAM FILES (X86)\MICROSOFT DIRECTX SDK (JUNE 2010)\INCLUDE\D3D10MISC.H
C:\PROGRAM FILES (X86)\MICROSOFT DIRECTX SDK (JUNE 2010)\INCLUDE\D3D10SHADER.H
C:\PROGRAM FILES (X86)\MICROSOFT DIRECTX SDK (JUNE 2010)\INCLUDE\D3D10EFFECT.H
C:\PROGRAM FILES (X86)\MICROSOFT DIRECTX SDK (JUNE 2010)\INCLUDE\D3D10_1SHADER.H
C:\PROGRAM FILES (X86)\MICROSOFT DIRECTX SDK (JUNE 2010)\INCLUDE\D3D11SDKLAYERS.H
C:\PROGRAM FILES (X86)\MICROSOFT DIRECTX SDK (JUNE 2010)\INCLUDE\D3DCOMPILER.H
C:\PROGRAM FILES (X86)\MICROSOFT DIRECTX SDK (JUNE 2010)\INCLUDE\D3D11SHADER.H
C:\PROGRAM FILES (X86)\MICROSOFT DIRECTX SDK (JUNE 2010)\INCLUDE\D3DX11.H
C:\PROGRAM FILES (X86)\MICROSOFT DIRECTX SDK (JUNE 2010)\INCLUDE\D3DX11CORE.H
C:\PROGRAM FILES (X86)\MICROSOFT DIRECTX SDK (JUNE 2010)\INCLUDE\D3DX11TEX.H
C:\PROGRAM FILES (X86)\MICROSOFT DIRECTX SDK (JUNE 2010)\INCLUDE\D3DX11ASYNC.H
C:\PROGRAM FILES (X86)\MICROSOFT DIRECTX SDK (JUNE 2010)\INCLUDE\XINPUT.H
C:\USERS\MARKO\DOCUMENTS\FAKULTET\PVISE\GAMECODE4-VS2015\SOURCE\GCC4\3RDPARTY\DXUT11\CORE\DXERR.H
C:\USERS\MARKO\DOCUMENTS\FAKULTET\PVISE\GAMECODE4-VS2015\SOURCE\GCC4\3RDPARTY\DXUT11\CORE\DXUTMISC.H
C:\USERS\MARKO\DOCUMENTS\FAKULTET\PVISE\GAMECODE4-VS2015\SOURCE\GCC4\3RDPARTY\DXUT11\CORE\DXUTDEVICE9.H
C:\USERS\MARKO\DOCUMENTS\FAKULTET\PVISE\GAMECODE4-VS2015\SOURCE\GCC4\3RDPARTY\DXUT11\CORE\DXUTDEVICE11.H
C:\USERS\MARKO\DOCUMENTS\FAKULTET\PVISE\GAMECODE4-VS2015\SOURCE\GCC4\3RDPARTY\DXUT11\OPTIONAL\SDKMISC.H
C:\USERS\MARKO\DOCUMENTS\FAKULTET\PVISE\GAMECODE4-VS2015\SOURCE\GCC4\3RDPARTY\TINYXML_2_6_2\TINYXML.H
C:\USERS\MARKO\DOCUMENTS\FAKULTET\PVISE\GAMECODE4-VS2015\SOURCE\GCC4\3RDPARTY\TINYXML_2_6_2\TINYSTR.H
C:\USERS\MARKO\DOCUMENTS\FAKULTET\PVISE\GAMECODE4-VS2015\SOURCE\GCC4\3RDPARTY\FASTDELEGATE\FASTDELEGATE.H
C:\USERS\MARKO\DOCUMENTS\FAKULTET\PVISE\GAMECODE4-VS2015\SOURCE\GCC4\DEBUGGING\LOGGER.H
C:\USERS\MARKO\DOCUMENTS\FAKULTET\PVISE\GAMECODE4-VS2015\SOURCE\GCC4\UTILITIES\TYPES.H
C:\USERS\MARKO\DOCUMENTS\FAKULTET\PVISE\GAMECODE4-VS2015\SOURCE\GCC4\UTILITIES\TEMPLATES.H
C:\USERS\MARKO\DOCUMENTS\FAKULTET\PVISE\GAMECODE4-VS2015\SOURCE\GCC4\GRAPHICS3D\GEOMETRY.H
C:\USERS\MARKO\DOCUMENTS\FAKULTET\PVISE\GAMECODE4-VS2015\SOURCE\GCC4\GAMECODE4\INTERFACES.H
C:\USERS\MARKO\DOCUMENTS\FAKULTET\PVISE\GAMECODE4-VS2015\SOURCE\GCC4\GAMECODE4\GAMECODE.H
C:\USERS\MARKO\DOCUMENTS\FAKULTET\PVISE\GAMECODE4-VS2015\SOURCE\GCC4\MAINLOOP\INITIALIZATION.H
C:\USERS\MARKO\DOCUMENTS\FAKULTET\PVISE\GAMECODE4-VS2015\SOURCE\GCC4\GAMECODE4\BASEGAMELOGIC.H
C:\USERS\MARKO\DOCUMENTS\FAKULTET\PVISE\GAMECODE4-VS2015\SOURCE\GCC4\MAINLOOP\PROCESSMANAGER.H
C:\USERS\MARKO\DOCUMENTS\FAKULTET\PVISE\GAMECODE4-VS2015\SOURCE\GCC4\MAINLOOP\PROCESS.H
C:\USERS\MARKO\DOCUMENTS\FAKULTET\PVISE\GAMECODE4-VS2015\SOURCE\GCC4\UTILITIES\MATH.H
C:\PROGRAM FILES (X86)\MICROSOFT VISUAL STUDIO 14.0\VC\INCLUDE\FUNCTIONAL
C:\PROGRAM FILES (X86)\MICROSOFT VISUAL STUDIO 14.0\VC\INCLUDE\XFUNCTIONAL
C:\USERS\MARKO\DOCUMENTS\FAKULTET\PVISE\GAMECODE4-VS2015\SOURCE\GCC4\EVENTMANAGER\EVENTMANAGER.H
C:\PROGRAM FILES (X86)\MICROSOFT VISUAL STUDIO 14.0\VC\INCLUDE\STRSTREAM
C:\USERS\MARKO\DOCUMENTS\FAKULTET\PVISE\GAMECODE4-VS2015\SOURCE\GCC4\MULTICORE\CRITICALSECTION.H
C:\USERS\MARKO\DOCUMENTS\FAKULTET\PVISE\GAMECODE4-VS2015\SOURCE\GCC4\DEBUGGING\MEMORYWATCHER.H
C:\USERS\MARKO\DOCUMENTS\FAKULTET\PVISE\GAMECODE4-VS2015\SOURCE\GCC4\ACTORS\ACTOR.H
C:\USERS\MARKO\DOCUMENTS\FAKULTET\PVISE\GAMECODE4-VS2015\SOURCE\GCC4\GRAPHICS3D\SCENENODES.H
C:\USERS\MARKO\DOCUMENTS\FAKULTET\PVISE\GAMECODE4-VS2015\SOURCE\GCC4\GRAPHICS3D\MATERIAL.H
C:\USERS\MARKO\DOCUMENTS\FAKULTET\PVISE\GAMECODE4-VS2015\SOURCE\GCC4\RESOURCECACHE\RESCACHE.H
C:\USERS\MARKO\DOCUMENTS\FAKULTET\PVISE\GAMECODE4-VS2015\SOURCE\GCC4\RESOURCECACHE\ZIPFILE.H
C:\USERS\MARKO\DOCUMENTS\FAKULTET\PVISE\GAMECODE4-VS2015\SOURCE\GCC4\GRAPHICS3D\SHADERS.H
C:\PROGRAM FILES (X86)\MICROSOFT DIRECTX SDK (JUNE 2010)\INCLUDE\XNAMATH.H
C:\PROGRAM FILES (X86)\MICROSOFT DIRECTX SDK (JUNE 2010)\INCLUDE\XNAMATHCONVERT.INL
C:\PROGRAM FILES (X86)\MICROSOFT DIRECTX SDK (JUNE 2010)\INCLUDE\XNAMATHVECTOR.INL
C:\PROGRAM FILES (X86)\MICROSOFT DIRECTX SDK (JUNE 2010)\INCLUDE\XNAMATHMATRIX.INL
C:\PROGRAM FILES (X86)\MICROSOFT DIRECTX SDK (JUNE 2010)\INCLUDE\XNAMATHMISC.INL
C:\USERS\MARKO\DOCUMENTS\FAKULTET\PVISE\GAMECODE4-VS2015\SOURCE\GCC4\USERINTERFACE\USERINTERFACE.H
C:\USERS\MARKO\DOCUMENTS\FAKULTET\PVISE\GAMECODE4-VS2015\SOURCE\GCC4\GRAPHICS3D\SCENE.H
^C:\USERS\MARKO\DOCUMENTS\FAKULTET\PVISE\GAMECODE4-VS2015\SOURCE\TEAPOTWARS\TEAPOTCONTROLLER.CPP
C:\USERS\MARKO\DOCUMENTS\FAKULTET\PVISE\GAMECODE4-VS2015\SOURCE\TEMP\TEAPOTWARS_2015WIN32RELEASE\TEAPOTWARS_2015WIN32RELEASE.PCH
C:\USERS\MARKO\DOCUMENTS\FAKULTET\PVISE\GAMECODE4-VS2015\SOURCE\GCC4\ACTORS\TRANSFORMCOMPONENT.H
C:\USERS\MARKO\DOCUMENTS\FAKULTET\PVISE\GAMECODE4-VS2015\SOURCE\GCC4\ACTORS\ACTORCOMPONENT.H
C:\USERS\MARKO\DOCUMENTS\FAKULTET\PVISE\GAMECODE4-VS2015\SOURCE\GCC4\UTILITIES\STRING.H
C:\USERS\MARKO\DOCUMENTS\FAKULTET\PVISE\GAMECODE4-VS2015\SOURCE\GCC4\ACTORS\PHYSICSCOMPONENT.H
C:\USERS\MARKO\DOCUMENTS\FAKULTET\PVISE\GAMECODE4-VS2015\SOURCE\GCC4\PHYSICS\PHYSICSEVENTLISTENER.H
C:\USERS\MARKO\DOCUMENTS\FAKULTET\PVISE\GAMECODE4-VS2015\SOURCE\GCC4\LUASCRIPTING\SCRIPTEVENT.H
C:\USERS\MARKO\DOCUMENTS\FAKULTET\PVISE\GAMECODE4-VS2015\SOURCE\GCC4\3RDPARTY\LUAPLUS51-ALL\SRC\LUAPLUS\LUAPLUS.H
C:\USERS\MARKO\DOCUMENTS\FAKULTET\PVISE\GAMECODE4-VS2015\SOURCE\GCC4\3RDPARTY\LUAPLUS51-ALL\SRC\LUAPLUS\LUAPLUSINTERNAL.H
C:\USERS\MARKO\DOCUMENTS\FAKULTET\PVISE\GAMECODE4-VS2015\SOURCE\GCC4\3RDPARTY\LUAPLUS51-ALL\SRC\LUAPLUS\SRC\LUA.H
C:\USERS\MARKO\DOCUMENTS\FAKULTET\PVISE\GAMECODE4-VS2015\SOURCE\GCC4\3RDPARTY\LUAPLUS51-ALL\SRC\LUAPLUS\LUALINK.H
C:\USERS\MARKO\DOCUMENTS\FAKULTET\PVISE\GAMECODE4-VS2015\SOURCE\GCC4\3RDPARTY\LUAPLUS51-ALL\SRC\LUAPLUS\SRC\LUACONF.H
C:\PROGRAM FILES (X86)\WINDOWS KITS\10\INCLUDE\10.0.10240.0\UCRT\ASSERT.H
C:\USERS\MARKO\DOCUMENTS\FAKULTET\PVISE\GAMECODE4-VS2015\SOURCE\GCC4\3RDPARTY\LUAPLUS51-ALL\SRC\LUAPLUS\SRC\LAUXLIB.H
C:\USERS\MARKO\DOCUMENTS\FAKULTET\PVISE\GAMECODE4-VS2015\SOURCE\GCC4\3RDPARTY\LUAPLUS51-ALL\SRC\LUAPLUS\LUASTACKOBJECT.H
C:\USERS\MARKO\DOCUMENTS\FAKULTET\PVISE\GAMECODE4-VS2015\SOURCE\GCC4\3RDPARTY\LUAPLUS51-ALL\SRC\LUAPLUS\LUAPLUSCD.H
C:\USERS\MARKO\DOCUMENTS\FAKULTET\PVISE\GAMECODE4-VS2015\SOURCE\GCC4\3RDPARTY\LUAPLUS51-ALL\SRC\LUAPLUS\LUASTACKOBJECT.INL
C:\USERS\MARKO\DOCUMENTS\FAKULTET\PVISE\GAMECODE4-VS2015\SOURCE\GCC4\3RDPARTY\LUAPLUS51-ALL\SRC\LUAPLUS\LUAOBJECT.H
C:\USERS\MARKO\DOCUMENTS\FAKULTET\PVISE\GAMECODE4-VS2015\SOURCE\GCC4\3RDPARTY\LUAPLUS51-ALL\SRC\LUAPLUS\LUASTATECD.H
C:\USERS\MARKO\DOCUMENTS\FAKULTET\PVISE\GAMECODE4-VS2015\SOURCE\GCC4\3RDPARTY\LUAPLUS51-ALL\SRC\LUAPLUS\LUASTATE.H
C:\USERS\MARKO\DOCUMENTS\FAKULTET\PVISE\GAMECODE4-VS2015\SOURCE\GCC4\3RDPARTY\LUAPLUS51-ALL\SRC\LUAPLUS\LUASTATE.INL
C:\USERS\MARKO\DOCUMENTS\FAKULTET\PVISE\GAMECODE4-VS2015\SOURCE\GCC4\3RDPARTY\LUAPLUS51-ALL\SRC\LUAPLUS\LUATABLEITERATOR.H
C:\USERS\MARKO\DOCUMENTS\FAKULTET\PVISE\GAMECODE4-VS2015\SOURCE\GCC4\3RDPARTY\LUAPLUS51-ALL\SRC\LUAPLUS\LUAOBJECT.INL
C:\USERS\MARKO\DOCUMENTS\FAKULTET\PVISE\GAMECODE4-VS2015\SOURCE\GCC4\3RDPARTY\LUAPLUS51-ALL\SRC\LUAPLUS\LUASTATEOUTFILE.H
C:\USERS\MARKO\DOCUMENTS\FAKULTET\PVISE\GAMECODE4-VS2015\SOURCE\GCC4\3RDPARTY\LUAPLUS51-ALL\SRC\LUAPLUS\LUAHELPER.H
C:\USERS\MARKO\DOCUMENTS\FAKULTET\PVISE\GAMECODE4-VS2015\SOURCE\GCC4\3RDPARTY\LUAPLUS51-ALL\SRC\LUAPLUS\LUAHELPER_OBJECT.H
C:\USERS\MARKO\DOCUMENTS\FAKULTET\PVISE\GAMECODE4-VS2015\SOURCE\GCC4\3RDPARTY\LUAPLUS51-ALL\SRC\LUAPLUS\LUAHELPER_STACKOBJECT.H
C:\USERS\MARKO\DOCUMENTS\FAKULTET\PVISE\GAMECODE4-VS2015\SOURCE\GCC4\3RDPARTY\LUAPLUS51-ALL\SRC\LUAPLUS\LUAAUTOBLOCK.H
C:\USERS\MARKO\DOCUMENTS\FAKULTET\PVISE\GAMECODE4-VS2015\SOURCE\GCC4\3RDPARTY\LUAPLUS51-ALL\SRC\LUAPLUS\LUASTACKTABLEITERATOR.H
C:\USERS\MARKO\DOCUMENTS\FAKULTET\PVISE\GAMECODE4-VS2015\SOURCE\GCC4\3RDPARTY\LUAPLUS51-ALL\SRC\LUAPLUS\LUASTACKTABLEITERATOR.INL
C:\USERS\MARKO\DOCUMENTS\FAKULTET\PVISE\GAMECODE4-VS2015\SOURCE\GCC4\3RDPARTY\LUAPLUS51-ALL\SRC\LUAPLUS\LUACALL.H
C:\USERS\MARKO\DOCUMENTS\FAKULTET\PVISE\GAMECODE4-VS2015\SOURCE\GCC4\3RDPARTY\LUAPLUS51-ALL\SRC\LUAPLUS\LUACALL.INL
C:\USERS\MARKO\DOCUMENTS\FAKULTET\PVISE\GAMECODE4-VS2015\SOURCE\GCC4\3RDPARTY\LUAPLUS51-ALL\SRC\LUAPLUS\LUAFUNCTION.H
C:\USERS\MARKO\DOCUMENTS\FAKULTET\PVISE\GAMECODE4-VS2015\SOURCE\TEAPOTWARS\TEAPOTCONTROLLER.H
C:\USERS\MARKO\DOCUMENTS\FAKULTET\PVISE\GAMECODE4-VS2015\SOURCE\TEAPOTWARS\TEAPOTEVENTS.H
C:\USERS\MARKO\DOCUMENTS\FAKULTET\PVISE\GAMECODE4-VS2015\SOURCE\GCC4\EVENTMANAGER\EVENTS.H
C:\USERS\MARKO\DOCUMENTS\FAKULTET\PVISE\GAMECODE4-VS2015\SOURCE\TEAPOTWARS\MSVC\TEAPOTWARS.H
C:\PROGRAM FILES (X86)\MICROSOFT VISUAL STUDIO 14.0\VC\INCLUDE\IOSTREAM
^C:\USERS\MARKO\DOCUMENTS\FAKULTET\PVISE\GAMECODE4-VS2015\SOURCE\TEAPOTWARS\TEAPOTEVENTS.CPP
C:\USERS\MARKO\DOCUMENTS\FAKULTET\PVISE\GAMECODE4-VS2015\SOURCE\TEMP\TEAPOTWARS_2015WIN32RELEASE\TEAPOTWARS_2015WIN32RELEASE.PCH
C:\USERS\MARKO\DOCUMENTS\FAKULTET\PVISE\GAMECODE4-VS2015\SOURCE\TEAPOTWARS\TEAPOTEVENTS.H
C:\USERS\MARKO\DOCUMENTS\FAKULTET\PVISE\GAMECODE4-VS2015\SOURCE\GCC4\EVENTMANAGER\EVENTS.H
C:\USERS\MARKO\DOCUMENTS\FAKULTET\PVISE\GAMECODE4-VS2015\SOURCE\GCC4\LUASCRIPTING\SCRIPTEVENT.H
C:\USERS\MARKO\DOCUMENTS\FAKULTET\PVISE\GAMECODE4-VS2015\SOURCE\GCC4\3RDPARTY\LUAPLUS51-ALL\SRC\LUAPLUS\LUAPLUS.H
C:\USERS\MARKO\DOCUMENTS\FAKULTET\PVISE\GAMECODE4-VS2015\SOURCE\GCC4\3RDPARTY\LUAPLUS51-ALL\SRC\LUAPLUS\LUAPLUSINTERNAL.H
C:\USERS\MARKO\DOCUMENTS\FAKULTET\PVISE\GAMECODE4-VS2015\SOURCE\GCC4\3RDPARTY\LUAPLUS51-ALL\SRC\LUAPLUS\SRC\LUA.H
C:\USERS\MARKO\DOCUMENTS\FAKULTET\PVISE\GAMECODE4-VS2015\SOURCE\GCC4\3RDPARTY\LUAPLUS51-ALL\SRC\LUAPLUS\LUALINK.H
C:\USERS\MARKO\DOCUMENTS\FAKULTET\PVISE\GAMECODE4-VS2015\SOURCE\GCC4\3RDPARTY\LUAPLUS51-ALL\SRC\LUAPLUS\SRC\LUACONF.H
C:\PROGRAM FILES (X86)\WINDOWS KITS\10\INCLUDE\10.0.10240.0\UCRT\ASSERT.H
C:\USERS\MARKO\DOCUMENTS\FAKULTET\PVISE\GAMECODE4-VS2015\SOURCE\GCC4\3RDPARTY\LUAPLUS51-ALL\SRC\LUAPLUS\SRC\LAUXLIB.H
C:\USERS\MARKO\DOCUMENTS\FAKULTET\PVISE\GAMECODE4-VS2015\SOURCE\GCC4\3RDPARTY\LUAPLUS51-ALL\SRC\LUAPLUS\LUASTACKOBJECT.H
C:\USERS\MARKO\DOCUMENTS\FAKULTET\PVISE\GAMECODE4-VS2015\SOURCE\GCC4\3RDPARTY\LUAPLUS51-ALL\SRC\LUAPLUS\LUAPLUSCD.H
C:\USERS\MARKO\DOCUMENTS\FAKULTET\PVISE\GAMECODE4-VS2015\SOURCE\GCC4\3RDPARTY\LUAPLUS51-ALL\SRC\LUAPLUS\LUASTACKOBJECT.INL
C:\USERS\MARKO\DOCUMENTS\FAKULTET\PVISE\GAMECODE4-VS2015\SOURCE\GCC4\3RDPARTY\LUAPLUS51-ALL\SRC\LUAPLUS\LUAOBJECT.H
C:\USERS\MARKO\DOCUMENTS\FAKULTET\PVISE\GAMECODE4-VS2015\SOURCE\GCC4\3RDPARTY\LUAPLUS51-ALL\SRC\LUAPLUS\LUASTATECD.H
C:\USERS\MARKO\DOCUMENTS\FAKULTET\PVISE\GAMECODE4-VS2015\SOURCE\GCC4\3RDPARTY\LUAPLUS51-ALL\SRC\LUAPLUS\LUASTATE.H
C:\USERS\MARKO\DOCUMENTS\FAKULTET\PVISE\GAMECODE4-VS2015\SOURCE\GCC4\3RDPARTY\LUAPLUS51-ALL\SRC\LUAPLUS\LUASTATE.INL
C:\USERS\MARKO\DOCUMENTS\FAKULTET\PVISE\GAMECODE4-VS2015\SOURCE\GCC4\3RDPARTY\LUAPLUS51-ALL\SRC\LUAPLUS\LUATABLEITERATOR.H
C:\USERS\MARKO\DOCUMENTS\FAKULTET\PVISE\GAMECODE4-VS2015\SOURCE\GCC4\3RDPARTY\LUAPLUS51-ALL\SRC\LUAPLUS\LUAOBJECT.INL
C:\USERS\MARKO\DOCUMENTS\FAKULTET\PVISE\GAMECODE4-VS2015\SOURCE\GCC4\3RDPARTY\LUAPLUS51-ALL\SRC\LUAPLUS\LUASTATEOUTFILE.H
C:\USERS\MARKO\DOCUMENTS\FAKULTET\PVISE\GAMECODE4-VS2015\SOURCE\GCC4\3RDPARTY\LUAPLUS51-ALL\SRC\LUAPLUS\LUAHELPER.H
C:\USERS\MARKO\DOCUMENTS\FAKULTET\PVISE\GAMECODE4-VS2015\SOURCE\GCC4\3RDPARTY\LUAPLUS51-ALL\SRC\LUAPLUS\LUAHELPER_OBJECT.H
C:\USERS\MARKO\DOCUMENTS\FAKULTET\PVISE\GAMECODE4-VS2015\SOURCE\GCC4\3RDPARTY\LUAPLUS51-ALL\SRC\LUAPLUS\LUAHELPER_STACKOBJECT.H
C:\USERS\MARKO\DOCUMENTS\FAKULTET\PVISE\GAMECODE4-VS2015\SOURCE\GCC4\3RDPARTY\LUAPLUS51-ALL\SRC\LUAPLUS\LUAAUTOBLOCK.H
C:\USERS\MARKO\DOCUMENTS\FAKULTET\PVISE\GAMECODE4-VS2015\SOURCE\GCC4\3RDPARTY\LUAPLUS51-ALL\SRC\LUAPLUS\LUASTACKTABLEITERATOR.H
C:\USERS\MARKO\DOCUMENTS\FAKULTET\PVISE\GAMECODE4-VS2015\SOURCE\GCC4\3RDPARTY\LUAPLUS51-ALL\SRC\LUAPLUS\LUASTACKTABLEITERATOR.INL
C:\USERS\MARKO\DOCUMENTS\FAKULTET\PVISE\GAMECODE4-VS2015\SOURCE\GCC4\3RDPARTY\LUAPLUS51-ALL\SRC\LUAPLUS\LUACALL.H
C:\USERS\MARKO\DOCUMENTS\FAKULTET\PVISE\GAMECODE4-VS2015\SOURCE\GCC4\3RDPARTY\LUAPLUS51-ALL\SRC\LUAPLUS\LUACALL.INL
C:\USERS\MARKO\DOCUMENTS\FAKULTET\PVISE\GAMECODE4-VS2015\SOURCE\GCC4\3RDPARTY\LUAPLUS51-ALL\SRC\LUAPLUS\LUAFUNCTION.H
C:\USERS\MARKO\DOCUMENTS\FAKULTET\PVISE\GAMECODE4-VS2015\SOURCE\GCC4\LUASCRIPTING\LUASTATEMANAGER.H
^C:\USERS\MARKO\DOCUMENTS\FAKULTET\PVISE\GAMECODE4-VS2015\SOURCE\TEAPOTWARS\TEAPOTWARS.CPP
C:\USERS\MARKO\DOCUMENTS\FAKULTET\PVISE\GAMECODE4-VS2015\SOURCE\TEMP\TEAPOTWARS_2015WIN32RELEASE\TEAPOTWARS_2015WIN32RELEASE.PCH
C:\USERS\MARKO\DOCUMENTS\FAKULTET\PVISE\GAMECODE4-VS2015\SOURCE\GCC4\PHYSICS\PHYSICS.H
C:\USERS\MARKO\DOCUMENTS\FAKULTET\PVISE\GAMECODE4-VS2015\SOURCE\GCC4\PHYSICS\PHYSICSEVENTLISTENER.H
C:\USERS\MARKO\DOCUMENTS\FAKULTET\PVISE\GAMECODE4-VS2015\SOURCE\GCC4\LUASCRIPTING\SCRIPTEVENT.H
C:\USERS\MARKO\DOCUMENTS\FAKULTET\PVISE\GAMECODE4-VS2015\SOURCE\GCC4\3RDPARTY\LUAPLUS51-ALL\SRC\LUAPLUS\LUAPLUS.H
C:\USERS\MARKO\DOCUMENTS\FAKULTET\PVISE\GAMECODE4-VS2015\SOURCE\GCC4\3RDPARTY\LUAPLUS51-ALL\SRC\LUAPLUS\LUAPLUSINTERNAL.H
C:\USERS\MARKO\DOCUMENTS\FAKULTET\PVISE\GAMECODE4-VS2015\SOURCE\GCC4\3RDPARTY\LUAPLUS51-ALL\SRC\LUAPLUS\SRC\LUA.H
C:\USERS\MARKO\DOCUMENTS\FAKULTET\PVISE\GAMECODE4-VS2015\SOURCE\GCC4\3RDPARTY\LUAPLUS51-ALL\SRC\LUAPLUS\LUALINK.H
C:\USERS\MARKO\DOCUMENTS\FAKULTET\PVISE\GAMECODE4-VS2015\SOURCE\GCC4\3RDPARTY\LUAPLUS51-ALL\SRC\LUAPLUS\SRC\LUACONF.H
C:\PROGRAM FILES (X86)\WINDOWS KITS\10\INCLUDE\10.0.10240.0\UCRT\ASSERT.H
C:\USERS\MARKO\DOCUMENTS\FAKULTET\PVISE\GAMECODE4-VS2015\SOURCE\GCC4\3RDPARTY\LUAPLUS51-ALL\SRC\LUAPLUS\SRC\LAUXLIB.H
C:\USERS\MARKO\DOCUMENTS\FAKULTET\PVISE\GAMECODE4-VS2015\SOURCE\GCC4\3RDPARTY\LUAPLUS51-ALL\SRC\LUAPLUS\LUASTACKOBJECT.H
C:\USERS\MARKO\DOCUMENTS\FAKULTET\PVISE\GAMECODE4-VS2015\SOURCE\GCC4\3RDPARTY\LUAPLUS51-ALL\SRC\LUAPLUS\LUAPLUSCD.H
C:\USERS\MARKO\DOCUMENTS\FAKULTET\PVISE\GAMECODE4-VS2015\SOURCE\GCC4\3RDPARTY\LUAPLUS51-ALL\SRC\LUAPLUS\LUASTACKOBJECT.INL
C:\USERS\MARKO\DOCUMENTS\FAKULTET\PVISE\GAMECODE4-VS2015\SOURCE\GCC4\3RDPARTY\LUAPLUS51-ALL\SRC\LUAPLUS\LUAOBJECT.H
C:\USERS\MARKO\DOCUMENTS\FAKULTET\PVISE\GAMECODE4-VS2015\SOURCE\GCC4\3RDPARTY\LUAPLUS51-ALL\SRC\LUAPLUS\LUASTATECD.H
C:\USERS\MARKO\DOCUMENTS\FAKULTET\PVISE\GAMECODE4-VS2015\SOURCE\GCC4\3RDPARTY\LUAPLUS51-ALL\SRC\LUAPLUS\LUASTATE.H
C:\USERS\MARKO\DOCUMENTS\FAKULTET\PVISE\GAMECODE4-VS2015\SOURCE\GCC4\3RDPARTY\LUAPLUS51-ALL\SRC\LUAPLUS\LUASTATE.INL
C:\USERS\MARKO\DOCUMENTS\FAKULTET\PVISE\GAMECODE4-VS2015\SOURCE\GCC4\3RDPARTY\LUAPLUS51-ALL\SRC\LUAPLUS\LUATABLEITERATOR.H
C:\USERS\MARKO\DOCUMENTS\FAKULTET\PVISE\GAMECODE4-VS2015\SOURCE\GCC4\3RDPARTY\LUAPLUS51-ALL\SRC\LUAPLUS\LUAOBJECT.INL
C:\USERS\MARKO\DOCUMENTS\FAKULTET\PVISE\GAMECODE4-VS2015\SOURCE\GCC4\3RDPARTY\LUAPLUS51-ALL\SRC\LUAPLUS\LUASTATEOUTFILE.H
C:\USERS\MARKO\DOCUMENTS\FAKULTET\PVISE\GAMECODE4-VS2015\SOURCE\GCC4\3RDPARTY\LUAPLUS51-ALL\SRC\LUAPLUS\LUAHELPER.H
C:\USERS\MARKO\DOCUMENTS\FAKULTET\PVISE\GAMECODE4-VS2015\SOURCE\GCC4\3RDPARTY\LUAPLUS51-ALL\SRC\LUAPLUS\LUAHELPER_OBJECT.H
C:\USERS\MARKO\DOCUMENTS\FAKULTET\PVISE\GAMECODE4-VS2015\SOURCE\GCC4\3RDPARTY\LUAPLUS51-ALL\SRC\LUAPLUS\LUAHELPER_STACKOBJECT.H
C:\USERS\MARKO\DOCUMENTS\FAKULTET\PVISE\GAMECODE4-VS2015\SOURCE\GCC4\3RDPARTY\LUAPLUS51-ALL\SRC\LUAPLUS\LUAAUTOBLOCK.H
C:\USERS\MARKO\DOCUMENTS\FAKULTET\PVISE\GAMECODE4-VS2015\SOURCE\GCC4\3RDPARTY\LUAPLUS51-ALL\SRC\LUAPLUS\LUASTACKTABLEITERATOR.H
C:\USERS\MARKO\DOCUMENTS\FAKULTET\PVISE\GAMECODE4-VS2015\SOURCE\GCC4\3RDPARTY\LUAPLUS51-ALL\SRC\LUAPLUS\LUASTACKTABLEITERATOR.INL
C:\USERS\MARKO\DOCUMENTS\FAKULTET\PVISE\GAMECODE4-VS2015\SOURCE\GCC4\3RDPARTY\LUAPLUS51-ALL\SRC\LUAPLUS\LUACALL.H
C:\USERS\MARKO\DOCUMENTS\FAKULTET\PVISE\GAMECODE4-VS2015\SOURCE\GCC4\3RDPARTY\LUAPLUS51-ALL\SRC\LUAPLUS\LUACALL.INL
C:\USERS\MARKO\DOCUMENTS\FAKULTET\PVISE\GAMECODE4-VS2015\SOURCE\GCC4\3RDPARTY\LUAPLUS51-ALL\SRC\LUAPLUS\LUAFUNCTION.H
C:\USERS\MARKO\DOCUMENTS\FAKULTET\PVISE\GAMECODE4-VS2015\SOURCE\GCC4\AI\PATHING.H
C:\USERS\MARKO\DOCUMENTS\FAKULTET\PVISE\GAMECODE4-VS2015\SOURCE\GCC4\MEMORY\MEMORYPOOL.H
C:\USERS\MARKO\DOCUMENTS\FAKULTET\PVISE\GAMECODE4-VS2015\SOURCE\GCC4\MEMORY\MEMORYMACROS.H
C:\USERS\MARKO\DOCUMENTS\FAKULTET\PVISE\GAMECODE4-VS2015\SOURCE\GCC4\EVENTMANAGER\EVENTS.H
C:\USERS\MARKO\DOCUMENTS\FAKULTET\PVISE\GAMECODE4-VS2015\SOURCE\GCC4\EVENTMANAGER\EVENTMANAGERIMPL.H
C:\USERS\MARKO\DOCUMENTS\FAKULTET\PVISE\GAMECODE4-VS2015\SOURCE\GCC4\ACTORS\PHYSICSCOMPONENT.H
C:\USERS\MARKO\DOCUMENTS\FAKULTET\PVISE\GAMECODE4-VS2015\SOURCE\GCC4\ACTORS\ACTORCOMPONENT.H
C:\USERS\MARKO\DOCUMENTS\FAKULTET\PVISE\GAMECODE4-VS2015\SOURCE\GCC4\UTILITIES\STRING.H
C:\USERS\MARKO\DOCUMENTS\FAKULTET\PVISE\GAMECODE4-VS2015\SOURCE\GCC4\ACTORS\TRANSFORMCOMPONENT.H
C:\USERS\MARKO\DOCUMENTS\FAKULTET\PVISE\GAMECODE4-VS2015\SOURCE\TEAPOTWARS\MSVC\TEAPOTWARS.H
C:\USERS\MARKO\DOCUMENTS\FAKULTET\PVISE\GAMECODE4-VS2015\SOURCE\TEAPOTWARS\TEAPOTWARSVIEW.H
C:\USERS\MARKO\DOCUMENTS\FAKULTET\PVISE\GAMECODE4-VS2015\SOURCE\GCC4\3RDPARTY\DXUT11\OPTIONAL\DXUTGUI.H
C:\PROGRAM FILES (X86)\WINDOWS KITS\8.1\INCLUDE\UM\USP10.H
C:\PROGRAM FILES (X86)\WINDOWS KITS\8.1\INCLUDE\UM\DIMM.H
C:\PROGRAM FILES (X86)\WINDOWS KITS\8.1\INCLUDE\UM\IMM.H
C:\USERS\MARKO\DOCUMENTS\FAKULTET\PVISE\GAMECODE4-VS2015\SOURCE\GCC4\USERINTERFACE\HUMANVIEW.H
C:\USERS\MARKO\DOCUMENTS\FAKULTET\PVISE\GAMECODE4-VS2015\SOURCE\TEAPOTWARS\TEAPOTWARSNETWORK.H
C:\USERS\MARKO\DOCUMENTS\FAKULTET\PVISE\GAMECODE4-VS2015\SOURCE\GCC4\NETWORK\NETWORK.H
C:\PROGRAM FILES (X86)\WINDOWS KITS\8.1\INCLUDE\UM\WINSOCK2.H
C:\PROGRAM FILES (X86)\WINDOWS KITS\8.1\INCLUDE\SHARED\WS2DEF.H
C:\PROGRAM FILES (X86)\WINDOWS KITS\8.1\INCLUDE\SHARED\INADDR.H
C:\PROGRAM FILES (X86)\WINDOWS KITS\8.1\INCLUDE\SHARED\QOS.H
C:\USERS\MARKO\DOCUMENTS\FAKULTET\PVISE\GAMECODE4-VS2015\SOURCE\TEAPOTWARS\TEAPOTEVENTS.H
C:\USERS\MARKO\DOCUMENTS\FAKULTET\PVISE\GAMECODE4-VS2015\SOURCE\TEAPOTWARS\MSVC\TEAPOTRESOURCES.H
^C:\USERS\MARKO\DOCUMENTS\FAKULTET\PVISE\GAMECODE4-VS2015\SOURCE\TEAPOTWARS\TEAPOTWARSVIEW.CPP
C:\USERS\MARKO\DOCUMENTS\FAKULTET\PVISE\GAMECODE4-VS2015\SOURCE\TEMP\TEAPOTWARS_2015WIN32RELEASE\TEAPOTWARS_2015WIN32RELEASE.PCH
C:\USERS\MARKO\DOCUMENTS\FAKULTET\PVISE\GAMECODE4-VS2015\SOURCE\GCC4\AUDIO\AUDIO.H
C:\USERS\MARKO\DOCUMENTS\FAKULTET\PVISE\GAMECODE4-VS2015\SOURCE\GCC4\AUDIO\SOUNDPROCESS.H
C:\USERS\MARKO\DOCUMENTS\FAKULTET\PVISE\GAMECODE4-VS2015\SOURCE\GCC4\AUDIO\SOUNDRESOURCE.H
C:\PROGRAM FILES (X86)\WINDOWS KITS\8.1\INCLUDE\UM\MMSYSTEM.H
C:\USERS\MARKO\DOCUMENTS\FAKULTET\PVISE\GAMECODE4-VS2015\SOURCE\GCC4\GRAPHICS3D\D3DRENDERER.H
C:\USERS\MARKO\DOCUMENTS\FAKULTET\PVISE\GAMECODE4-VS2015\SOURCE\GCC4\3RDPARTY\DXUT11\OPTIONAL\DXUTGUI.H
C:\PROGRAM FILES (X86)\WINDOWS KITS\8.1\INCLUDE\UM\USP10.H
C:\PROGRAM FILES (X86)\WINDOWS KITS\8.1\INCLUDE\UM\DIMM.H
C:\PROGRAM FILES (X86)\WINDOWS KITS\8.1\INCLUDE\UM\IMM.H
C:\USERS\MARKO\DOCUMENTS\FAKULTET\PVISE\GAMECODE4-VS2015\SOURCE\GCC4\GRAPHICS3D\MOVEMENTCONTROLLER.H
C:\USERS\MARKO\DOCUMENTS\FAKULTET\PVISE\GAMECODE4-VS2015\SOURCE\GCC4\GRAPHICS3D\RAYCAST.H
C:\USERS\MARKO\DOCUMENTS\FAKULTET\PVISE\GAMECODE4-VS2015\SOURCE\GCC4\GRAPHICS3D\SKY.H
C:\USERS\MARKO\DOCUMENTS\FAKULTET\PVISE\GAMECODE4-VS2015\SOURCE\GCC4\EVENTMANAGER\EVENTS.H
C:\USERS\MARKO\DOCUMENTS\FAKULTET\PVISE\GAMECODE4-VS2015\SOURCE\GCC4\LUASCRIPTING\SCRIPTEVENT.H
C:\USERS\MARKO\DOCUMENTS\FAKULTET\PVISE\GAMECODE4-VS2015\SOURCE\GCC4\3RDPARTY\LUAPLUS51-ALL\SRC\LUAPLUS\LUAPLUS.H
C:\USERS\MARKO\DOCUMENTS\FAKULTET\PVISE\GAMECODE4-VS2015\SOURCE\GCC4\3RDPARTY\LUAPLUS51-ALL\SRC\LUAPLUS\LUAPLUSINTERNAL.H
C:\USERS\MARKO\DOCUMENTS\FAKULTET\PVISE\GAMECODE4-VS2015\SOURCE\GCC4\3RDPARTY\LUAPLUS51-ALL\SRC\LUAPLUS\SRC\LUA.H
C:\USERS\MARKO\DOCUMENTS\FAKULTET\PVISE\GAMECODE4-VS2015\SOURCE\GCC4\3RDPARTY\LUAPLUS51-ALL\SRC\LUAPLUS\LUALINK.H
C:\USERS\MARKO\DOCUMENTS\FAKULTET\PVISE\GAMECODE4-VS2015\SOURCE\GCC4\3RDPARTY\LUAPLUS51-ALL\SRC\LUAPLUS\SRC\LUACONF.H
C:\PROGRAM FILES (X86)\WINDOWS KITS\10\INCLUDE\10.0.10240.0\UCRT\ASSERT.H
C:\USERS\MARKO\DOCUMENTS\FAKULTET\PVISE\GAMECODE4-VS2015\SOURCE\GCC4\3RDPARTY\LUAPLUS51-ALL\SRC\LUAPLUS\SRC\LAUXLIB.H
C:\USERS\MARKO\DOCUMENTS\FAKULTET\PVISE\GAMECODE4-VS2015\SOURCE\GCC4\3RDPARTY\LUAPLUS51-ALL\SRC\LUAPLUS\LUASTACKOBJECT.H
C:\USERS\MARKO\DOCUMENTS\FAKULTET\PVISE\GAMECODE4-VS2015\SOURCE\GCC4\3RDPARTY\LUAPLUS51-ALL\SRC\LUAPLUS\LUAPLUSCD.H
C:\USERS\MARKO\DOCUMENTS\FAKULTET\PVISE\GAMECODE4-VS2015\SOURCE\GCC4\3RDPARTY\LUAPLUS51-ALL\SRC\LUAPLUS\LUASTACKOBJECT.INL
C:\USERS\MARKO\DOCUMENTS\FAKULTET\PVISE\GAMECODE4-VS2015\SOURCE\GCC4\3RDPARTY\LUAPLUS51-ALL\SRC\LUAPLUS\LUAOBJECT.H
C:\USERS\MARKO\DOCUMENTS\FAKULTET\PVISE\GAMECODE4-VS2015\SOURCE\GCC4\3RDPARTY\LUAPLUS51-ALL\SRC\LUAPLUS\LUASTATECD.H
C:\USERS\MARKO\DOCUMENTS\FAKULTET\PVISE\GAMECODE4-VS2015\SOURCE\GCC4\3RDPARTY\LUAPLUS51-ALL\SRC\LUAPLUS\LUASTATE.H
C:\USERS\MARKO\DOCUMENTS\FAKULTET\PVISE\GAMECODE4-VS2015\SOURCE\GCC4\3RDPARTY\LUAPLUS51-ALL\SRC\LUAPLUS\LUASTATE.INL
C:\USERS\MARKO\DOCUMENTS\FAKULTET\PVISE\GAMECODE4-VS2015\SOURCE\GCC4\3RDPARTY\LUAPLUS51-ALL\SRC\LUAPLUS\LUATABLEITERATOR.H
C:\USERS\MARKO\DOCUMENTS\FAKULTET\PVISE\GAMECODE4-VS2015\SOURCE\GCC4\3RDPARTY\LUAPLUS51-ALL\SRC\LUAPLUS\LUAOBJECT.INL
C:\USERS\MARKO\DOCUMENTS\FAKULTET\PVISE\GAMECODE4-VS2015\SOURCE\GCC4\3RDPARTY\LUAPLUS51-ALL\SRC\LUAPLUS\LUASTATEOUTFILE.H
C:\USERS\MARKO\DOCUMENTS\FAKULTET\PVISE\GAMECODE4-VS2015\SOURCE\GCC4\3RDPARTY\LUAPLUS51-ALL\SRC\LUAPLUS\LUAHELPER.H
C:\USERS\MARKO\DOCUMENTS\FAKULTET\PVISE\GAMECODE4-VS2015\SOURCE\GCC4\3RDPARTY\LUAPLUS51-ALL\SRC\LUAPLUS\LUAHELPER_OBJECT.H
C:\USERS\MARKO\DOCUMENTS\FAKULTET\PVISE\GAMECODE4-VS2015\SOURCE\GCC4\3RDPARTY\LUAPLUS51-ALL\SRC\LUAPLUS\LUAHELPER_STACKOBJECT.H
C:\USERS\MARKO\DOCUMENTS\FAKULTET\PVISE\GAMECODE4-VS2015\SOURCE\GCC4\3RDPARTY\LUAPLUS51-ALL\SRC\LUAPLUS\LUAAUTOBLOCK.H
C:\USERS\MARKO\DOCUMENTS\FAKULTET\PVISE\GAMECODE4-VS2015\SOURCE\GCC4\3RDPARTY\LUAPLUS51-ALL\SRC\LUAPLUS\LUASTACKTABLEITERATOR.H
C:\USERS\MARKO\DOCUMENTS\FAKULTET\PVISE\GAMECODE4-VS2015\SOURCE\GCC4\3RDPARTY\LUAPLUS51-ALL\SRC\LUAPLUS\LUASTACKTABLEITERATOR.INL
C:\USERS\MARKO\DOCUMENTS\FAKULTET\PVISE\GAMECODE4-VS2015\SOURCE\GCC4\3RDPARTY\LUAPLUS51-ALL\SRC\LUAPLUS\LUACALL.H
C:\USERS\MARKO\DOCUMENTS\FAKULTET\PVISE\GAMECODE4-VS2015\SOURCE\GCC4\3RDPARTY\LUAPLUS51-ALL\SRC\LUAPLUS\LUACALL.INL
C:\USERS\MARKO\DOCUMENTS\FAKULTET\PVISE\GAMECODE4-VS2015\SOURCE\GCC4\3RDPARTY\LUAPLUS51-ALL\SRC\LUAPLUS\LUAFUNCTION.H
C:\USERS\MARKO\DOCUMENTS\FAKULTET\PVISE\GAMECODE4-VS2015\SOURCE\GCC4\EVENTMANAGER\EVENTMANAGERIMPL.H
C:\USERS\MARKO\DOCUMENTS\FAKULTET\PVISE\GAMECODE4-VS2015\SOURCE\GCC4\PHYSICS\PHYSICSEVENTLISTENER.H
C:\USERS\MARKO\DOCUMENTS\FAKULTET\PVISE\GAMECODE4-VS2015\SOURCE\GCC4\USERINTERFACE\HUMANVIEW.H
C:\USERS\MARKO\DOCUMENTS\FAKULTET\PVISE\GAMECODE4-VS2015\SOURCE\GCC4\USERINTERFACE\MESSAGEBOX.H
C:\USERS\MARKO\DOCUMENTS\FAKULTET\PVISE\GAMECODE4-VS2015\SOURCE\GCC4\ACTORS\RENDERCOMPONENT.H
C:\USERS\MARKO\DOCUMENTS\FAKULTET\PVISE\GAMECODE4-VS2015\SOURCE\GCC4\ACTORS\RENDERCOMPONENTINTERFACE.H
C:\USERS\MARKO\DOCUMENTS\FAKULTET\PVISE\GAMECODE4-VS2015\SOURCE\GCC4\ACTORS\ACTORCOMPONENT.H
C:\USERS\MARKO\DOCUMENTS\FAKULTET\PVISE\GAMECODE4-VS2015\SOURCE\GCC4\UTILITIES\STRING.H
C:\USERS\MARKO\DOCUMENTS\FAKULTET\PVISE\GAMECODE4-VS2015\SOURCE\GCC4\GRAPHICS3D\LIGHTS.H
C:\USERS\MARKO\DOCUMENTS\FAKULTET\PVISE\GAMECODE4-VS2015\SOURCE\GCC4\LUASCRIPTING\LUASTATEMANAGER.H
C:\USERS\MARKO\DOCUMENTS\FAKULTET\PVISE\GAMECODE4-VS2015\SOURCE\TEAPOTWARS\TEAPOTWARSVIEW.H
C:\USERS\MARKO\DOCUMENTS\FAKULTET\PVISE\GAMECODE4-VS2015\SOURCE\TEAPOTWARS\TEAPOTWARSNETWORK.H
C:\USERS\MARKO\DOCUMENTS\FAKULTET\PVISE\GAMECODE4-VS2015\SOURCE\GCC4\NETWORK\NETWORK.H
C:\PROGRAM FILES (X86)\WINDOWS KITS\8.1\INCLUDE\UM\WINSOCK2.H
C:\PROGRAM FILES (X86)\WINDOWS KITS\8.1\INCLUDE\SHARED\WS2DEF.H
C:\PROGRAM FILES (X86)\WINDOWS KITS\8.1\INCLUDE\SHARED\INADDR.H
C:\PROGRAM FILES (X86)\WINDOWS KITS\8.1\INCLUDE\SHARED\QOS.H
C:\USERS\MARKO\DOCUMENTS\FAKULTET\PVISE\GAMECODE4-VS2015\SOURCE\TEAPOTWARS\MSVC\TEAPOTWARS.H
C:\USERS\MARKO\DOCUMENTS\FAKULTET\PVISE\GAMECODE4-VS2015\SOURCE\TEAPOTWARS\TEAPOTEVENTS.H
C:\USERS\MARKO\DOCUMENTS\FAKULTET\PVISE\GAMECODE4-VS2015\SOURCE\TEAPOTWARS\TEAPOTCONTROLLER.H
